,datetime,P_PV,P_Gaia,P_EV,P_TES,P_NFTL,P_Flex1,P_Flex3,SoC_EV,SoC_TES,P_Grid
0,2020-01-30_11-59-06,0.0,0.0,0.0,0.0,0.0,0.0,0.0,0.0,0.0,0.0
1,2020-01-30_11-59-11,-0.28090000000000004,-5.4441999999999995,0.0,0.0,6.769799999999999,3.842,0.9698999999999998,5.47577907646005,15.520404643137512,0.0
2,2020-01-30_11-59-16,-0.28060000000000007,-4.749899999999999,0.540093079788602,0.4029709095057967,6.7702,3.839,0.9694999999999998,5.476898876759348,15.521703324857446,-1.3554639892943996
