,datetime,P_PV,P_Gaia,P_EV,P_TES,P_NFTL,P_Flex1,P_Flex3,SoC_EV,SoC_TES
0,2020-01-30_10-04-16,0.0,0.0,0.0,0.0,0.0,0.0,0.0,0.0,0.0
1,2020-01-30_10-04-21,-0.49050000000000005,-5.777,0.0,0.0,6.0137,3.9708000000000006,0.29469999999999996,5.0,15.0
2,2020-01-30_10-04-26,-0.4899000000000001,-6.1045,0.266486665110003,0.16156871497990233,6.7849,3.9664,0.2946,5.0,15.0
3,2020-01-30_10-04-31,-0.4880999999999999,-6.2097999999999995,0.2825920789208603,0.16958387884595538,6.8158,3.9649,0.2943,5.0,15.0
4,2020-01-30_10-04-36,-0.48579999999999995,-5.9837,0.6401159734965249,0.3586209430152296,6.8088999999999995,3.8285000000000005,0.2937,5.0,15.0
5,2020-01-30_10-04-41,-0.4827,-5.7686,0.06353633603129243,0.4645941127424664,6.808200000000001,3.1506,0.2935,5.0,15.0
6,2020-01-30_10-04-46,-0.4781000000000001,-5.2462,0.5256836496537872,0.3204491265243181,6.809,3.0113000000000003,0.2935,5.0,15.0
