,datetime,Pmon_PV,Pmon_Gaia,Pmon_Heatpump,Pmon_Heatbooster,Pmon_NFTL,Pmon_Flex1,Pmon_Flex3,Pmon_Grid,Pmon_CEE,Pmon_Cable
0,2020-01-30_14-26-27,0.0,0.0,0.0,0.0,0.0,0.0,0.0,0.0,0.0,0.0
1,2020-01-30_14-26-27,0.243,6.221,-1.717,0.0,-1.717,-1.896,-0.823,-1.956,-0.054,-0.877
2,2020-01-30_14-26-28,0.243,6.173,-1.72,0.0,-1.72,-1.895,-0.823,-1.783,-0.044,-0.867
3,2020-01-30_14-26-30,0.243,6.299,-1.722,0.0,-1.722,-1.895,-0.823,-2.012,-0.047,-0.87
4,2020-01-30_14-26-31,0.242,6.061,-1.725,0.0,-1.725,-1.894,-0.822,-1.807,-0.043,-0.865
5,2020-01-30_14-26-33,0.243,6.18,-1.726,0.0,-1.726,-1.894,-0.823,-2.065,-0.044,-0.867
6,2020-01-30_14-26-34,0.241,6.672,-1.727,0.0,-1.727,-1.895,-0.823,-2.573,-0.049,-0.872
7,2020-01-30_14-26-36,0.24,7.078,-1.728,0.0,-1.728,-1.894,-0.823,-2.726,-0.052,-0.875
8,2020-01-30_14-26-37,0.241,6.89,-1.728,0.0,-1.728,-1.893,-0.823,-2.659,-0.044,-0.867
9,2020-01-30_14-26-38,0.24,7.472,-1.728,0.0,-1.728,-1.898,-0.823,-3.065,-0.045,-0.868
10,2020-01-30_14-26-40,0.241,7.741,-1.726,0.0,-1.726,-1.897,-0.823,-3.426,-0.044,-0.867
11,2020-01-30_14-26-42,0.24,7.52,-1.725,0.0,-1.725,-1.896,-0.824,-3.179,-0.045,-0.869
12,2020-01-30_14-26-43,0.239,7.28,-1.724,0.0,-1.724,-1.893,-0.824,-3.137,-0.044,-0.868
13,2020-01-30_14-26-45,0.24,6.121,-1.723,0.0,-1.723,-1.892,-0.824,-2.694,-0.044,-0.868
14,2020-01-30_14-26-46,0.24,6.673,-1.723,0.0,-1.723,-1.89,-0.824,-2.386,-0.044,-0.868
15,2020-01-30_14-26-48,0.24,6.751,-1.724,0.0,-1.724,-1.889,-0.824,-2.321,-0.044,-0.868
16,2020-01-30_14-26-49,0.24,6.476,-1.724,0.0,-1.724,-1.892,-0.823,-2.297,-0.045,-0.868
17,2020-01-30_14-26-51,0.241,6.588,-1.725,0.0,-1.725,-1.892,-0.823,-2.412,-0.045,-0.868
18,2020-01-30_14-26-52,0.24,6.188,-1.726,0.0,-1.726,-1.893,-0.823,-1.813,-0.044,-0.867
19,2020-01-30_14-26-54,0.241,5.94,-1.727,0.0,-1.727,-1.896,-0.822,-1.709,-0.045,-0.867
20,2020-01-30_14-26-55,0.242,6.329,-1.728,0.0,-1.728,-1.601,-0.822,-2.187,-0.044,-0.866
21,2020-01-30_14-26-57,0.241,6.724,-1.729,0.0,-1.729,-1.574,-0.822,-2.808,-0.045,-0.867
22,2020-01-30_14-26-58,0.242,6.717,-1.728,0.0,-1.728,-1.574,-0.824,-2.751,-0.045,-0.869
23,2020-01-30_14-27-00,0.242,6.605,-1.715,0.0,-1.715,-1.575,-0.824,-2.687,-0.045,-0.869
24,2020-01-30_14-27-01,0.242,6.328,-1.688,0.0,-1.688,-1.573,-0.823,-2.531,-0.047,-0.87
25,2020-01-30_14-27-03,0.242,5.989,-1.679,0.0,-1.679,-1.573,-0.823,-2.054,-0.044,-0.867
26,2020-01-30_14-27-04,0.243,5.786,-1.668,0.0,-1.668,-1.572,-0.822,-1.851,-0.044,-0.866
27,2020-01-30_14-27-06,0.245,6.308,-1.664,0.0,-1.664,-1.571,-0.822,-2.448,-0.046,-0.868
28,2020-01-30_14-27-07,0.245,6.402,-1.66,0.0,-1.66,-1.571,-0.821,-2.594,-0.049,-0.87
29,2020-01-30_14-27-09,0.246,6.557,-1.659,0.0,-1.659,-2.354,-0.821,-2.157,-0.046,-0.867
30,2020-01-30_14-27-10,0.247,6.65,-1.657,0.0,-1.657,-2.381,-0.821,-2.044,-0.045,-0.866
31,2020-01-30_14-27-11,0.248,7.497,-1.657,0.0,-1.657,-2.379,-0.822,-2.818,-0.045,-0.867
32,2020-01-30_14-27-13,0.248,7.586,-1.655,0.0,-1.655,-2.38,-0.822,-2.917,-0.045,-0.867
33,2020-01-30_14-27-15,0.249,7.473,-1.654,0.0,-1.654,-2.377,-0.823,-2.755,-0.046,-0.869
34,2020-01-30_14-27-17,0.249,7.311,-1.653,0.0,-1.653,-2.376,-0.823,-2.543,-0.045,-0.868
35,2020-01-30_14-27-19,0.25,7.213,-1.654,0.0,-1.654,-2.377,-0.822,-2.637,-0.045,-0.867
36,2020-01-30_14-27-20,0.251,6.941,-1.655,0.0,-1.655,-2.378,-0.822,-2.229,-0.045,-0.867
37,2020-01-30_14-27-22,0.251,6.716,-1.655,-4.486,-6.141,-2.379,-0.822,2.625,-0.045,-0.867
38,2020-01-30_14-27-24,0.252,7.203,-1.655,-7.685,-9.34,-2.371,-0.821,5.176,-0.045,-0.866
39,2020-01-30_14-27-25,0.252,7.396,-1.655,-7.687,-9.342,-2.373,-0.821,5.061,-0.045,-0.866
40,2020-01-30_14-27-27,0.254,7.828,-1.654,-7.691,-9.344999999999999,-2.372,-0.821,4.489,-0.044,-0.865
41,2020-01-30_14-27-28,0.254,7.63,-1.654,-7.692,-9.346,-2.372,-0.819,4.627,-0.046,-0.865
42,2020-01-30_14-27-30,0.254,7.539,-1.653,-7.693,-9.346,-2.371,-0.819,4.879,-0.046,-0.865
43,2020-01-30_14-27-31,0.253,7.381,-1.653,-7.694,-9.347,-2.371,-0.817,5.178,-0.044,-0.861
44,2020-01-30_14-27-33,0.254,7.303,-1.653,-7.695,-9.348,-2.372,-0.816,4.987,-0.045,-0.861
45,2020-01-30_14-27-34,0.255,6.982,-1.652,-7.695,-9.347,-2.371,-0.816,5.422,-0.05,-0.866
46,2020-01-30_14-27-36,0.255,6.803,-1.653,-7.696,-9.349,-2.371,-0.816,5.534,-0.047,-0.863
47,2020-01-30_14-27-37,0.255,6.717,-1.652,-7.696,-9.347999999999999,-2.372,-0.816,5.662,-0.044,-0.86
48,2020-01-30_14-27-39,0.256,7.066,-1.651,-7.696,-9.347,-2.371,-0.816,5.25,-0.051,-0.867
49,2020-01-30_14-27-41,0.256,7.096,-1.65,-7.695,-9.345,-2.367,-0.816,5.39,-0.045,-0.861
50,2020-01-30_14-27-43,0.257,6.109,-1.65,-7.694,-9.344,-2.365,-0.814,5.858,-0.043,-0.857
51,2020-01-30_14-27-44,0.256,6.609,-1.649,-7.689,-9.338000000000001,-2.368,-0.814,5.82,-0.044,-0.858
52,2020-01-30_14-27-47,0.257,6.547,-1.651,-7.692,-9.343,-2.37,-0.814,5.906,-0.044,-0.858
53,2020-01-30_14-27-48,0.258,6.946,-1.651,-7.692,-9.343,-2.365,-0.811,5.357,-0.045,-0.8560000000000001
54,2020-01-30_14-27-55,0.26,6.899,-1.65,-7.69,-9.34,-2.365,-0.809,5.404,-0.046,-0.8550000000000001
55,2020-01-30_14-27-56,0.259,6.824,-1.65,-7.686,-9.336,-2.364,-0.81,5.408,-0.045,-0.8550000000000001
56,2020-01-30_14-27-58,0.26,6.495,-1.65,-7.683,-9.333,-2.363,-0.808,5.937,-0.046,-0.8540000000000001
57,2020-01-30_14-28-00,0.261,5.956,-1.649,-7.681,-9.33,-2.361,-0.809,6.175,-0.046,-0.8550000000000001
58,2020-01-30_14-28-01,0.261,5.912,-1.649,-7.678,-9.327,-2.362,-0.809,6.391,-0.045,-0.8540000000000001
59,2020-01-30_14-28-03,0.261,5.726,-1.649,-7.677,-9.326,-2.364,-0.809,6.668,-0.045,-0.8540000000000001
60,2020-01-30_14-28-05,0.263,5.004,-1.666,-7.679,-9.345,-2.364,-0.808,7.469,-0.046,-0.8540000000000001
61,2020-01-30_14-28-07,0.264,5.282,-1.679,-7.68,-9.359,-2.364,-0.807,7.033,-0.047,-0.8540000000000001
62,2020-01-30_14-28-08,0.264,5.498,-1.697,-7.686,-9.383,-2.367,-0.808,6.867,-0.046,-0.8540000000000001
63,2020-01-30_14-28-10,0.263,5.83,-1.702,-7.687,-9.389,-2.366,-0.808,6.506,-0.045,-0.8530000000000001
64,2020-01-30_14-28-11,0.265,6.039,-1.71,-7.692,-9.402000000000001,-2.367,-0.809,6.403,-0.046,-0.8550000000000001
65,2020-01-30_14-28-13,0.265,5.942,-1.713,-7.693,-9.405999999999999,-2.367,-0.81,6.58,-0.047,-0.8570000000000001
66,2020-01-30_14-28-14,0.266,6.19,-1.715,-7.697,-9.412,-2.369,-0.81,6.253,-0.047,-0.8570000000000001
67,2020-01-30_14-28-15,0.265,5.891,-1.719,-7.698,-9.417,-2.368,-0.811,6.483,-0.047,-0.8580000000000001
68,2020-01-30_14-28-17,0.266,5.932,-1.72,-7.699,-9.419,-2.367,-0.812,6.508,-0.045,-0.8570000000000001
69,2020-01-30_14-28-18,0.269,5.831,-1.722,-7.699,-9.421,-2.367,-0.813,6.514,-0.045,-0.858
70,2020-01-30_14-28-20,0.269,5.591,-1.723,-7.699,-9.422,-2.367,-0.814,6.898,-0.046,-0.86
71,2020-01-30_14-28-21,0.271,5.55,-1.724,-7.701,-9.424999999999999,-2.367,-0.812,6.903,-0.045,-0.8570000000000001
72,2020-01-30_14-28-23,0.273,5.476,-1.723,-7.703,-9.426,-2.368,-0.811,6.936,-0.046,-0.8570000000000001
73,2020-01-30_14-28-25,0.274,5.484,-1.722,-7.705,-9.427,-2.37,-0.81,6.81,-0.046,-0.8560000000000001
74,2020-01-30_14-28-27,0.274,5.808,-1.723,-7.71,-9.433,-2.37,-0.81,6.662,-0.045,-0.8550000000000001
75,2020-01-30_14-28-29,0.276,5.471,-1.723,-7.711,-9.434000000000001,-2.368,-0.814,7.043,-0.045,-0.859
76,2020-01-30_14-28-30,0.276,5.214,-1.725,-7.709,-9.434,-2.367,-0.813,7.359,-0.046,-0.859
77,2020-01-30_14-28-31,0.277,4.955,-1.725,-7.708,-9.433,-2.368,-0.813,7.367,-0.046,-0.859
78,2020-01-30_14-28-33,0.277,4.886,-1.726,-7.709,-9.434999999999999,-2.368,-0.812,7.521,-0.046,-0.8580000000000001
79,2020-01-30_14-28-36,0.28,5.101,-1.724,-7.707,-9.431,-2.367,-0.811,7.393,-0.046,-0.8570000000000001
80,2020-01-30_14-28-38,0.281,4.821,-1.723,-7.706,-9.429,-2.367,-0.811,7.591,-0.045,-0.8560000000000001
81,2020-01-30_14-28-39,0.282,4.974,-1.723,-7.703,-9.426,-2.363,-0.81,7.467,-0.045,-0.8550000000000001
82,2020-01-30_14-28-41,0.283,4.379,-1.723,-7.698,-9.421000000000001,-2.362,-0.81,8.057,-0.045,-0.8550000000000001
83,2020-01-30_14-28-43,0.285,4.639,-1.723,-7.694,-9.417,-2.36,-0.81,7.47,-0.045,-0.8550000000000001
84,2020-01-30_14-28-44,0.286,5.33,-1.723,-7.689,-9.412,-2.36,-0.81,6.919,-0.045,-0.8550000000000001
85,2020-01-30_14-28-46,0.286,5.922,-1.711,-7.688,-9.399,-2.358,-0.809,6.347,-0.043,-0.8520000000000001
86,2020-01-30_14-28-48,0.289,6.398,-1.678,-7.683,-9.361,-2.359,-0.809,6.296,-0.044,-0.8530000000000001
87,2020-01-30_14-28-50,0.29,7.139,-1.672,-7.684,-9.356,-2.36,-0.81,4.952,-0.043,-0.8530000000000001
88,2020-01-30_14-28-51,0.292,6.792,-1.662,-7.688,-9.35,-2.363,-0.809,5.696,-0.049,-0.8580000000000001
89,2020-01-30_14-28-55,0.294,6.408,-1.658,-7.693,-9.350999999999999,-2.363,-0.81,5.906,-0.044,-0.8540000000000001
90,2020-01-30_14-28-56,0.295,6.547,-1.656,-7.693,-9.349,-2.364,-0.809,5.709,-0.045,-0.8540000000000001
91,2020-01-30_14-28-58,0.296,6.465,-1.654,-7.696,-9.35,-2.364,-0.811,5.978,-0.046,-0.8570000000000001
92,2020-01-30_14-29-00,0.299,6.121,-1.651,-7.698,-9.349,-2.361,-0.811,6.194,-0.046,-0.8570000000000001
93,2020-01-30_14-29-02,0.3,6.11,-1.65,-7.697,-9.347,-2.361,-0.81,6.159,-0.045,-0.8550000000000001
94,2020-01-30_14-29-03,0.302,6.17,-1.651,-7.691,-9.342,-2.354,-0.81,6.219,-0.045,-0.8550000000000001
95,2020-01-30_14-29-05,0.304,5.828,-1.651,-7.685,-9.336,-2.355,-0.808,6.541,-0.047,-0.8550000000000001
96,2020-01-30_14-29-06,0.305,5.629,-1.652,-7.684,-9.336,-2.354,-0.808,6.684,-0.047,-0.8550000000000001
97,2020-01-30_14-29-08,0.306,5.536,-1.653,-7.681,-9.334,-2.355,-0.808,6.74,-0.046,-0.8540000000000001
98,2020-01-30_14-29-09,0.307,5.603,-1.655,-7.681,-9.336,-2.356,-0.808,6.652,-0.045,-0.8530000000000001
99,2020-01-30_14-29-11,0.309,6.256,-1.655,-7.682,-9.337,-2.356,-0.808,5.88,-0.046,-0.8540000000000001
100,2020-01-30_14-29-12,0.311,7.112,-1.656,-7.685,-9.341,-2.357,-0.808,5.525,-0.045,-0.8530000000000001
101,2020-01-30_14-29-14,0.312,7.38,-1.655,-7.687,-9.342,-2.358,-0.808,4.826,-0.046,-0.8540000000000001
102,2020-01-30_14-29-15,0.313,7.37,-1.654,-7.689,-9.343,-2.357,-0.809,4.846,-0.048,-0.8570000000000001
103,2020-01-30_14-29-18,0.317,7.5,-1.653,0.0,-1.653,-2.355,-0.81,-2.94,-0.052,-0.8620000000000001
104,2020-01-30_14-29-19,0.318,7.374,-1.654,0.0,-1.654,-2.365,-0.812,-2.69,-0.055,-0.8670000000000001
105,2020-01-30_14-29-21,0.321,7.313,-1.654,0.0,-1.654,-2.366,-0.815,-2.907,-0.054,-0.869
106,2020-01-30_14-29-22,0.322,7.541,-1.655,0.0,-1.655,-2.366,-0.816,-2.869,-0.055,-0.871
107,2020-01-30_14-29-24,0.322,8.121,-1.656,0.0,-1.656,-2.366,-0.817,-3.518,-0.045,-0.862
108,2020-01-30_14-29-25,0.326,8.13,-1.658,0.0,-1.658,-2.367,-0.817,-3.526,-0.044,-0.861
109,2020-01-30_14-29-27,0.327,7.953,-1.658,0.0,-1.658,-2.366,-0.817,-3.327,-0.044,-0.861
110,2020-01-30_14-29-28,0.329,7.918,-1.657,0.0,-1.657,-2.364,-0.817,-3.225,-0.045,-0.862
111,2020-01-30_14-29-30,0.331,7.425,-1.656,0.0,-1.656,-2.364,-0.816,-2.877,-0.045,-0.861
112,2020-01-30_14-29-32,0.334,7.951,-1.654,0.0,-1.654,-2.367,-0.817,-3.358,-0.044,-0.861
113,2020-01-30_14-29-34,0.335,9.127,-1.653,0.0,-1.653,-2.372,-0.818,-4.242,-0.043,-0.861
114,2020-01-30_14-29-36,0.34,8.885,-1.653,0.0,-1.653,-2.369,-0.82,-3.972,-0.044,-0.864
115,2020-01-30_14-29-38,0.341,8.935,-1.653,0.0,-1.653,-2.369,-0.821,-4.389,-0.043,-0.864
116,2020-01-30_14-29-39,0.344,8.092,-1.653,0.0,-1.653,-2.364,-0.82,-4.349,-0.044,-0.864
117,2020-01-30_14-29-41,0.344,8.384,-1.653,0.0,-1.653,-2.367,-0.819,-3.803,-0.044,-0.863
118,2020-01-30_14-29-42,0.348,8.285,-1.654,0.0,-1.654,-2.368,-0.818,-3.759,-0.044,-0.862
119,2020-01-30_14-29-44,0.349,8.006,-1.654,0.0,-1.654,-2.369,-0.818,-3.263,-0.044,-0.862
120,2020-01-30_14-29-45,0.351,7.873,-1.654,0.0,-1.654,-3.769,-0.818,-2.23,-0.045,-0.863
121,2020-01-30_14-29-46,0.352,7.949,-1.655,0.0,-1.655,-3.77,-0.818,-1.82,-0.044,-0.862
122,2020-01-30_14-29-48,0.354,7.646,-1.654,0.0,-1.654,-2.98,-0.819,-1.758,-0.045,-0.864
123,2020-01-30_14-29-49,0.356,7.576,-1.654,0.0,-1.654,-2.98,-0.82,-2.23,-0.045,-0.865
124,2020-01-30_14-29-51,0.357,7.475,-1.652,0.0,-1.652,-2.977,-0.821,-2.444,-0.044,-0.865
125,2020-01-30_14-29-52,0.357,7.729,-1.651,0.0,-1.651,-2.976,-0.821,-2.621,-0.044,-0.865
126,2020-01-30_14-29-54,0.36,8.247,-1.651,0.0,-1.651,-2.972,-0.821,-3.142,-0.044,-0.865
127,2020-01-30_14-29-55,0.361,8.236,-1.65,0.0,-1.65,-2.964,-0.821,-0.792,-0.067,-0.8879999999999999
128,2020-01-30_14-29-57,0.361,8.334,-1.65,0.0,-1.65,-2.958,-0.818,1.727,-0.706,-1.524
129,2020-01-30_14-29-58,0.361,8.466,-1.651,0.0,-1.651,-2.959,-0.817,1.747,-1.979,-2.7960000000000003
130,2020-01-30_14-30-00,0.362,8.313,-1.651,0.0,-1.651,-2.958,-0.817,2.145,-2.786,-3.6029999999999998
131,2020-01-30_14-30-01,0.364,8.24,-1.651,0.0,-1.651,-2.947,-0.815,2.245,-3.846,-4.661
132,2020-01-30_14-30-03,0.363,8.179,-1.651,0.0,-1.651,-2.956,-0.814,2.334,-4.187,-5.001
133,2020-01-30_14-30-04,0.365,7.555,-1.651,0.0,-1.651,-2.951,-0.814,2.63,-4.778,-5.592
134,2020-01-30_14-30-07,0.365,7.257,-1.648,0.0,-1.648,-2.948,-0.813,3.075,-4.886,-5.699
135,2020-01-30_14-30-09,0.365,7.357,-1.646,0.0,-1.646,-2.944,-0.814,2.951,-5.029,-5.843
136,2020-01-30_14-30-10,0.363,7.305,-1.645,0.0,-1.645,-2.943,-0.814,2.996,-5.109,-5.923
137,2020-01-30_14-30-12,0.365,7.446,-1.645,0.0,-1.645,-2.943,-0.815,2.681,-5.133,-5.948
138,2020-01-30_14-30-14,0.365,7.005,-1.645,0.0,-1.645,-2.938,-0.814,5.39,-5.327,-6.141
139,2020-01-30_14-30-15,0.364,6.804,-1.645,0.0,-1.645,-2.946,-0.813,5.727,-5.829,-6.6419999999999995
140,2020-01-30_14-30-17,0.361,6.717,-1.645,0.0,-1.645,-2.945,-0.813,5.955,-6.495,-7.308
141,2020-01-30_14-30-18,0.362,6.452,-1.646,0.0,-1.646,-1.571,-0.812,5.072,-6.871,-7.683000000000001
142,2020-01-30_14-30-20,0.362,6.392,-1.647,0.0,-1.647,-1.569,-0.813,4.688,-6.991,-7.803999999999999
143,2020-01-30_14-30-21,0.362,6.932,-1.647,0.0,-1.647,-1.571,-0.813,4.29,-7.151,-7.9639999999999995
144,2020-01-30_14-30-23,0.362,6.928,-1.649,0.0,-1.649,-1.57,-0.814,3.746,-7.155,-7.969
145,2020-01-30_14-30-24,0.36,6.667,-1.649,0.0,-1.649,-1.57,-0.814,3.811,-6.949,-7.763
146,2020-01-30_14-30-26,0.358,6.311,-1.659,0.0,-1.659,-1.567,-0.814,4.285,-6.882,-7.696
147,2020-01-30_14-30-27,0.356,5.912,-1.684,0.0,-1.684,-1.566,-0.814,4.659,-6.796,-7.61
148,2020-01-30_14-30-29,0.354,5.865,-1.692,-5.28,-6.972,-1.561,-0.813,11.772,-6.765,-7.577999999999999
149,2020-01-30_14-30-30,0.353,6.278,-1.703,-6.876,-8.579,-1.553,-0.809,11.76,-6.733,-7.542
150,2020-01-30_14-30-32,0.354,6.417,-1.707,-7.055,-8.762,-1.559,-0.807,11.688,-6.692,-7.4990000000000006
151,2020-01-30_14-30-33,0.353,6.233,-1.714,-7.192,-8.906,-1.561,-0.805,11.642,-6.66,-7.465
152,2020-01-30_14-30-34,0.351,6.426,-1.716,-7.37,-9.086,-1.557,-0.804,11.31,-6.442,-7.246
153,2020-01-30_14-30-36,0.351,6.317,-1.718,-7.462,-9.18,-1.555,-0.801,11.335,-6.365,-7.166
154,2020-01-30_14-30-38,0.347,5.769,-1.719,-7.493,-9.212,-1.559,-0.801,11.647,-6.266,-7.067
155,2020-01-30_14-30-39,0.346,5.514,-1.721,-7.541,-9.262,-1.562,-0.801,12.209,-6.209,-7.01
156,2020-01-30_14-30-41,0.346,5.341,-1.721,-7.568,-9.289,-1.553,-0.802,12.216,-6.177,-6.978999999999999
157,2020-01-30_14-30-43,0.341,5.761,-1.723,-7.573,-9.296000000000001,-1.563,-0.802,11.561,-6.142,-6.944000000000001
158,2020-01-30_14-30-45,0.341,5.586,-1.724,-7.582,-9.306,-1.558,-0.802,11.555,-5.93,-6.731999999999999
159,2020-01-30_14-30-46,0.339,5.39,-1.725,-7.589,-9.314,-1.561,-0.802,11.918,-5.86,-6.662000000000001
160,2020-01-30_14-30-48,0.336,5.846,-1.726,-7.594,-9.32,-1.56,-0.803,11.213,-5.771,-6.574
161,2020-01-30_14-30-49,0.334,6.258,-1.726,-7.605,-9.331,-1.563,-0.804,10.924,-5.678,-6.482
162,2020-01-30_14-30-54,0.328,5.904,-1.728,-7.619,-9.347,-1.568,-0.804,11.079,-5.558,-6.362
163,2020-01-30_14-30-57,0.326,5.961,-1.729,-7.626,-9.355,-1.567,-0.804,11.083,-5.514,-6.3180000000000005
164,2020-01-30_14-30-59,0.323,5.574,-1.729,-7.623,-9.352,-1.564,-0.803,11.381,-5.484,-6.287
165,2020-01-30_14-31-03,0.319,5.532,-1.727,-7.62,-9.347,-1.564,-0.803,11.4,-5.443,-6.2459999999999996
166,2020-01-30_14-31-05,0.315,5.156,-1.725,-7.618,-9.343,-1.562,-0.804,11.555,-5.357,-6.1610000000000005
167,2020-01-30_14-31-09,0.31,4.939,-1.724,-7.619,-9.343,-1.566,-0.803,11.808,-5.34,-6.143
168,2020-01-30_14-31-11,0.308,4.916,-1.726,-7.618,-9.344000000000001,-1.562,-0.802,11.976,-5.255,-6.057
169,2020-01-30_14-31-15,0.303,5.139,-1.727,-7.62,-9.347,-1.564,-0.803,11.055,-5.022,-5.825
170,2020-01-30_14-31-18,0.299,5.233,-1.699,-7.623,-9.322000000000001,-1.564,-0.803,11.099,-4.946,-5.749
171,2020-01-30_14-31-20,0.297,5.337,-1.673,-7.625,-9.298,-1.564,-0.803,10.997,-4.893,-5.696
172,2020-01-30_14-31-23,0.295,5.155,-1.657,-7.626,-9.283000000000001,-1.564,-0.804,11.054,-4.836,-5.640000000000001
173,2020-01-30_14-31-27,0.29,5.758,-1.653,-7.629,-9.282,-1.562,-0.805,10.557,-4.807,-5.612
174,2020-01-30_14-31-29,0.285,5.731,-1.652,-7.626,-9.278,-1.562,-0.805,10.344,-4.801,-5.606
175,2020-01-30_14-31-33,0.283,6.562,-1.653,-7.627,-9.28,-1.561,-0.805,9.809,-4.889,-5.694
176,2020-01-30_14-31-36,0.283,6.337,-1.652,-7.624,-9.276,-1.56,-0.804,10.233,-4.941,-5.745
177,2020-01-30_14-31-39,0.275,6.349,-1.652,-7.62,-9.272,-1.562,-0.804,10.097,-4.96,-5.764
178,2020-01-30_14-31-42,0.273,6.507,-1.654,-7.626,-9.280000000000001,-1.562,-0.804,9.821,-4.974,-5.7780000000000005
179,2020-01-30_14-31-45,0.271,7.185,-1.655,-7.624,-9.279,-1.563,-0.804,9.284,-4.976,-5.78
180,2020-01-30_14-31-47,0.266,6.7,-1.653,-7.615,-9.268,-1.559,-0.804,9.818,-4.98,-5.784000000000001
181,2020-01-30_14-31-53,0.262,7.5,-1.653,-7.61,-9.263,-1.559,-0.803,8.965,-4.98,-5.783
182,2020-01-30_14-31-58,0.261,7.223,-1.654,-7.61,-9.264,-1.558,-0.805,9.356,-4.979,-5.784
183,2020-01-30_14-32-00,0.258,6.796,-1.653,-7.603,-9.256,-1.559,-0.803,9.853,-4.981,-5.784
184,2020-01-30_14-32-04,0.256,7.535,-1.651,-7.606,-9.257,-1.562,-0.803,8.819,-4.978,-5.781
185,2020-01-30_14-32-09,0.254,8.034,-1.651,-7.612,-9.263,-1.559,-0.804,8.568,-4.978,-5.782
186,2020-01-30_14-32-11,0.252,7.517,-1.651,-7.603,-9.254,-1.552,-0.802,8.914,-4.976,-5.7780000000000005
187,2020-01-30_14-32-15,0.249,7.3,-1.652,-7.593,-9.245,-1.557,-0.802,9.187,-4.977,-5.779
188,2020-01-30_14-32-16,0.234,7.005,-1.652,-7.596,-9.248,-1.554,-0.803,9.441,-3.089,-3.892
189,2020-01-30_14-32-22,0.227,8.754,-1.649,-7.635,-9.283999999999999,-1.564,-0.806,3.268,-1.367,-2.173
190,2020-01-30_14-32-25,0.245,8.01,-1.649,-7.661,-9.309999999999999,-1.566,-0.808,3.681,-0.618,-1.4260000000000002
191,2020-01-30_14-32-29,0.246,7.125,-1.649,-7.663,-9.312000000000001,-1.564,-0.808,4.444,-0.162,-0.9700000000000001
192,2020-01-30_14-32-32,0.244,5.743,-1.66,-7.672,-9.331999999999999,-1.567,-0.808,5.124,-0.117,-0.925
193,2020-01-30_14-32-34,0.244,5.32,-1.684,-7.675,-9.359,-1.567,-0.809,6.249,-0.105,-0.914
194,2020-01-30_14-32-35,0.244,6.087,-1.699,-7.676,-9.375,-1.559,-0.809,5.324,-0.061,-0.8700000000000001
195,2020-01-30_14-32-39,0.243,6.613,-1.713,-7.672,-9.385,-1.565,-0.81,4.852,-0.05,-0.8600000000000001
196,2020-01-30_14-32-42,0.243,7.565,-1.717,0.0,-1.717,-1.566,-0.81,-1.338,-0.046,-0.8560000000000001
197,2020-01-30_14-32-46,0.241,6.376,-1.72,0.0,-1.72,-1.569,-0.814,-2.259,-0.046,-0.86
198,2020-01-30_14-32-50,0.24,4.755,-1.72,0.0,-1.72,-1.559,-0.814,-1.241,-0.045,-0.859
199,2020-01-30_14-32-53,0.241,5.254,-1.721,0.0,-1.721,-2.939,-0.813,-1.281,-0.045,-0.858
200,2020-01-30_14-32-58,0.241,6.362,-1.722,0.0,-1.722,-2.945,-0.814,-1.166,-0.045,-0.859
201,2020-01-30_14-33-02,0.241,7.05,-1.722,0.0,-1.722,-2.945,-0.814,-1.755,-0.044,-0.858
202,2020-01-30_14-33-05,0.242,6.654,-1.724,0.0,-1.724,-2.944,-0.813,-1.231,-0.044,-0.857
203,2020-01-30_14-33-09,0.242,6.703,-1.725,0.0,-1.725,-2.945,-0.813,-1.272,-0.045,-0.858
204,2020-01-30_14-33-10,0.241,6.734,-1.725,0.0,-1.725,-2.947,-0.813,-1.387,-0.045,-0.858
205,2020-01-30_14-33-14,0.242,6.802,-1.724,0.0,-1.724,-2.941,-0.813,-1.491,-0.044,-0.857
206,2020-01-30_14-33-17,0.243,6.422,-1.725,0.0,-1.725,-2.182,-0.812,-1.826,-0.045,-0.8570000000000001
207,2020-01-30_14-33-22,0.244,7.84,-1.727,0.0,-1.727,-2.187,-0.814,-3.169,-0.046,-0.86
208,2020-01-30_14-33-26,0.244,7.674,-1.726,0.0,-1.726,-2.183,-0.814,-3.245,-0.047,-0.861
209,2020-01-30_14-33-29,0.246,7.682,-1.725,0.0,-1.725,-2.181,-0.813,-3.086,-0.046,-0.859
210,2020-01-30_14-33-31,0.247,7.248,-1.724,0.0,-1.724,-2.181,-0.814,-2.692,-0.046,-0.86
211,2020-01-30_14-33-35,0.247,6.573,-1.691,0.0,-1.691,-2.179,-0.814,-2.18,-0.047,-0.861
212,2020-01-30_14-33-40,0.247,6.127,-1.659,0.0,-1.659,-2.178,-0.814,-2.197,-0.045,-0.859
213,2020-01-30_14-33-45,0.247,6.215,-1.65,0.0,-1.65,-2.181,-0.814,-1.648,-0.046,-0.86
214,2020-01-30_14-33-49,0.251,6.089,-1.649,0.0,-1.649,-2.183,-0.814,-1.625,-0.044,-0.858
215,2020-01-30_14-33-51,0.251,5.892,-1.651,0.0,-1.651,-2.182,-0.815,-1.398,-0.045,-0.86
216,2020-01-30_14-33-53,0.251,7.598,-1.652,0.0,-1.652,-2.178,-0.815,-2.34,-0.045,-0.86
217,2020-01-30_14-33-57,0.252,7.109,-1.65,0.0,-1.65,-2.173,-1.395,-1.312,-0.046,-1.441
218,2020-01-30_14-34-00,0.253,6.251,-1.648,-6.817,-8.465,-2.166,-1.131,5.763,-0.045,-1.176
219,2020-01-30_14-34-05,0.254,7.678,-1.65,-7.32,-8.97,-2.169,-0.996,4.714,-0.044,-1.04
220,2020-01-30_14-34-08,0.254,7.577,-1.652,-7.535,-9.187,-2.168,-0.969,4.512,-0.045,-1.014
221,2020-01-30_14-34-10,0.254,8.275,-1.652,-7.628,-9.28,-2.17,-0.949,3.955,-0.045,-0.994
222,2020-01-30_14-34-13,0.256,8.376,-1.651,-7.68,-9.331,-2.165,-0.931,4.133,-0.045,-0.9760000000000001
223,2020-01-30_14-34-17,0.257,7.58,-1.652,-7.697,-9.349,-2.168,-0.926,5.036,-0.045,-0.9710000000000001
224,2020-01-30_14-34-20,0.259,7.59,-1.687,-7.706,-9.393,-2.169,-0.922,5.036,-0.045,-0.9670000000000001
225,2020-01-30_14-34-24,0.26,7.01,-1.713,-7.713,-9.426,-2.17,-0.916,5.036,-0.044,-0.9600000000000001
226,2020-01-30_14-34-30,0.263,5.493,-1.717,-7.718,-9.435,-0.818,-0.915,6.635,-0.043,-0.9580000000000001
227,2020-01-30_14-34-34,0.264,5.476,-1.718,-7.708,-9.426,-0.818,-0.915,5.473,-0.044,-0.9590000000000001
228,2020-01-30_14-34-35,0.266,5.45,-1.719,-7.707,-9.426,-0.817,-0.913,5.557,-0.044,-0.9570000000000001
229,2020-01-30_14-34-38,0.266,4.391,-1.714,-7.702,-9.416,-0.819,-0.911,6.579,-0.045,-0.9560000000000001
230,2020-01-30_14-34-46,0.271,4.893,-1.716,-7.688,-9.404,-0.817,-0.909,6.036,-0.045,-0.9540000000000001
231,2020-01-30_14-34-49,0.273,4.98,-1.717,-7.685,-9.402,-0.817,-0.909,5.789,-0.045,-0.9540000000000001
232,2020-01-30_14-34-50,0.275,5.545,-1.718,-7.68,-9.398,-0.815,-0.907,5.271,-0.045,-0.9520000000000001
233,2020-01-30_14-34-54,0.277,5.455,-1.718,-7.675,-9.393,-0.815,-0.905,5.437,-0.044,-0.9490000000000001
234,2020-01-30_14-34-59,0.281,6.438,-1.718,-7.681,-9.399000000000001,-0.816,-0.903,4.573,-0.044,-0.9470000000000001
235,2020-01-30_14-35-04,0.286,5.916,-1.724,-7.694,-9.418,-0.817,-0.899,5.009,-0.043,-0.9420000000000001
236,2020-01-30_14-35-07,0.287,6.086,-1.724,-7.695,-9.419,-0.819,-0.898,4.581,-0.042,-0.9400000000000001
237,2020-01-30_14-35-12,0.292,6.569,-1.724,-7.691,-9.415,-0.817,-0.895,5.158,-0.043,-0.9380000000000001
238,2020-01-30_14-35-15,0.293,6.873,-1.725,-7.688,-9.413,-0.816,-0.893,3.967,-0.042,-0.935
239,2020-01-30_14-35-17,0.297,7.055,-1.726,-7.687,-9.413,-0.818,-0.892,3.757,-0.042,-0.934
240,2020-01-30_14-35-19,0.297,7.302,-1.727,-7.686,-9.413,-0.817,-0.892,3.807,-0.042,-0.934
241,2020-01-30_14-35-20,0.299,7.063,-1.728,-7.686,-9.414,-0.817,-0.891,3.943,-0.042,-0.933
242,2020-01-30_14-35-23,0.3,6.777,-1.726,-7.685,-9.411,-0.819,-0.892,4.088,-0.041,-0.933
243,2020-01-30_14-35-25,0.304,7.231,-1.725,-7.686,-9.411,-0.819,-0.892,3.648,-0.042,-0.934
244,2020-01-30_14-35-30,0.307,6.621,-1.724,-7.688,-9.411999999999999,-0.82,-0.892,4.185,-0.042,-0.934
245,2020-01-30_14-35-34,0.31,6.829,-1.689,-7.69,-9.379000000000001,-0.814,-0.896,3.969,-0.042,-0.9380000000000001
246,2020-01-30_14-35-37,0.315,6.258,-1.662,-7.699,-9.361,-0.818,-0.9,4.399,-0.041,-0.9410000000000001
247,2020-01-30_14-35-41,0.318,5.974,-1.658,-7.702,-9.36,-0.818,-0.9,4.804,-0.043,-0.9430000000000001
248,2020-01-30_14-35-44,0.322,5.81,-1.656,-7.704,-9.36,-0.818,-0.9,5.149,-0.042,-0.9420000000000001
249,2020-01-30_14-35-47,0.322,5.679,-1.656,-7.706,-9.362,-0.819,-0.901,5.141,-0.044,-0.9450000000000001
250,2020-01-30_14-35-48,0.326,5.727,-1.656,-7.713,-9.369,-0.818,-0.902,5.169,-0.043,-0.9450000000000001
251,2020-01-30_14-35-51,0.328,5.76,-1.653,0.0,-1.653,-0.82,-0.903,5.118,-0.043,-0.9460000000000001
252,2020-01-30_14-35-55,0.333,5.926,-1.652,0.0,-1.652,-0.82,-0.909,-2.78,-0.042,-0.9510000000000001
253,2020-01-30_14-35-59,0.337,5.394,-1.652,0.0,-1.652,-0.82,-0.909,-2.197,-0.042,-0.9510000000000001
254,2020-01-30_14-36-01,0.338,5.218,-1.652,0.0,-1.652,-0.82,-0.91,-2.094,-0.041,-0.9510000000000001
255,2020-01-30_14-36-02,0.34,5.33,-1.652,0.0,-1.652,-0.82,-0.91,-2.295,-0.04,-0.9500000000000001
256,2020-01-30_14-36-05,0.342,4.671,-1.65,0.0,-1.65,-0.823,-0.91,-1.526,-0.038,-0.9480000000000001
257,2020-01-30_14-36-09,0.347,4.838,-1.647,0.0,-1.647,-0.823,-0.912,-1.802,-0.04,-0.9520000000000001
258,2020-01-30_14-36-14,0.352,5.972,-1.646,0.0,-1.646,-0.815,-0.917,-2.868,-0.039,-0.9560000000000001
259,2020-01-30_14-36-17,0.354,6.292,-1.647,0.0,-1.647,-0.816,-0.918,-3.089,-0.04,-0.9580000000000001
260,2020-01-30_14-36-20,0.356,6.451,-1.649,0.0,-1.649,-0.82,-0.91,-3.293,-0.041,-0.9510000000000001
261,2020-01-30_14-36-23,0.36,5.262,-1.65,0.0,-1.65,-0.821,-0.906,-2.137,-0.041,-0.9470000000000001
262,2020-01-30_14-36-26,0.362,5.176,-1.65,0.0,-1.65,-0.821,-0.904,-1.976,-0.041,-0.9450000000000001
263,2020-01-30_14-36-29,0.364,4.355,-1.696,0.0,-1.696,-0.822,-0.903,-1.19,-0.04,-0.9430000000000001
264,2020-01-30_14-36-31,0.367,4.234,-1.714,0.0,-1.714,-0.823,-0.902,-1.053,-0.04,-0.9420000000000001
265,2020-01-30_14-36-35,0.369,4.632,-1.721,0.0,-1.721,-0.823,-0.902,-1.515,-0.04,-0.9420000000000001
266,2020-01-30_14-36-37,0.369,4.731,-1.724,0.0,-1.724,-0.823,-0.902,-1.604,-0.042,-0.9440000000000001
267,2020-01-30_14-36-39,0.369,4.867,-1.725,0.0,-1.725,-0.824,-0.902,-1.748,-0.041,-0.9430000000000001
268,2020-01-30_14-36-41,0.368,4.747,-1.726,0.0,-1.726,-0.823,-0.902,-1.725,-0.041,-0.9430000000000001
269,2020-01-30_14-36-44,0.37,4.911,-1.726,0.0,-1.726,-0.825,-0.902,-1.862,-0.04,-0.9420000000000001
270,2020-01-30_14-36-45,0.37,4.731,-1.725,0.0,-1.725,-0.826,-0.902,-1.551,-0.04,-0.9420000000000001
271,2020-01-30_14-36-47,0.37,4.712,-1.726,0.0,-1.726,-0.826,-0.902,-1.504,-0.041,-0.9430000000000001
272,2020-01-30_14-36-48,0.369,4.467,-1.725,0.0,-1.725,-0.826,-0.903,-1.207,-0.04,-0.9430000000000001
273,2020-01-30_14-36-50,0.37,4.323,-1.725,0.0,-1.725,-0.826,-0.903,-1.144,-0.041,-0.9440000000000001
274,2020-01-30_14-36-51,0.369,4.107,-1.725,0.0,-1.725,-0.825,-0.906,-0.886,-0.04,-0.9460000000000001
275,2020-01-30_14-36-55,0.367,3.697,-1.725,0.0,-1.725,-0.824,-0.912,-0.659,-0.042,-0.9540000000000001
276,2020-01-30_14-36-56,0.368,3.596,-1.725,0.0,-1.725,-0.823,-0.913,-0.377,-0.042,-0.9550000000000001
277,2020-01-30_14-36-58,0.368,3.253,-1.725,0.0,-1.725,-0.822,-0.914,-0.048,-0.041,-0.9550000000000001
278,2020-01-30_14-36-59,0.367,3.268,-1.723,0.0,-1.723,-0.821,-0.915,-0.176,-0.04,-0.9550000000000001
279,2020-01-30_14-37-01,0.366,3.324,-1.722,0.0,-1.722,-0.822,-0.914,-0.076,-0.04,-0.9540000000000001
280,2020-01-30_14-37-02,0.365,3.007,-1.72,-7.333,-9.053,-0.816,-0.91,0.194,-0.04,-0.9500000000000001
281,2020-01-30_14-37-06,0.361,2.338,-1.716,-7.553,-9.269,-0.817,-0.908,8.469,-0.042,-0.9500000000000001
282,2020-01-30_14-37-08,0.362,2.604,-1.673,-7.644,-9.317,-0.816,-0.906,8.146,-0.04,-0.9460000000000001
283,2020-01-30_14-37-12,0.361,4.0,-1.664,-7.672,-9.336,-0.817,-0.906,7.62,-0.042,-0.9480000000000001
284,2020-01-30_14-37-14,0.36,4.214,-1.658,-7.685,-9.343,-0.817,-0.905,6.535,-0.042,-0.9470000000000001
285,2020-01-30_14-37-17,0.356,4.685,-1.654,-7.701,-9.355,-0.819,-0.905,6.043,-0.042,-0.9470000000000001
286,2020-01-30_14-37-19,0.355,5.257,-1.653,-7.706,-9.359,-0.819,-0.906,5.673,-0.042,-0.9480000000000001
287,2020-01-30_14-37-20,0.356,5.199,-1.652,-7.71,-9.362,-0.82,-0.907,5.788,-0.041,-0.9480000000000001
288,2020-01-30_14-37-22,0.354,4.6,-1.651,-7.714,-9.365,-2.076,-0.908,6.182,-0.041,-0.9490000000000001
289,2020-01-30_14-37-24,0.348,4.197,-1.649,-7.701,-9.35,-2.201,-0.907,12.012,-0.945,-1.8519999999999999
290,2020-01-30_14-37-26,0.35,4.252,-1.649,-7.674,-9.323,-2.201,-0.904,12.21,-1.803,-2.707
291,2020-01-30_14-37-29,0.349,4.688,-1.649,-7.646,-9.295,-2.186,-0.901,11.758,-2.443,-3.3440000000000003
292,2020-01-30_14-37-31,0.35,5.262,-1.649,-7.615,-9.264,-2.186,-0.898,11.174,-2.646,-3.544
293,2020-01-30_14-37-33,0.348,5.69,-1.648,-7.586,-9.234,-2.186,-0.895,10.646,-2.799,-3.694
294,2020-01-30_14-37-36,0.349,6.206,-1.648,-7.584,-9.232,-2.186,-0.895,10.33,-2.825,-3.72
295,2020-01-30_14-37-38,0.347,6.557,-1.648,-7.583,-9.231,-2.176,-0.894,10.175,-2.86,-3.754
296,2020-01-30_14-37-39,0.345,6.048,-1.648,-7.585,-9.233,-2.174,-0.894,10.474,-2.887,-3.781
297,2020-01-30_14-37-42,0.345,5.498,-1.649,-7.584,-9.233,-2.173,-0.895,10.981,-2.892,-3.787
298,2020-01-30_14-37-44,0.345,5.26,-1.65,-7.581,-9.231,-2.169,-0.894,11.822,-3.048,-3.942
299,2020-01-30_14-37-46,0.344,5.014,-1.65,-7.586,-9.236,-2.182,-0.896,12.036,-3.179,-4.075
300,2020-01-30_14-37-49,0.343,5.25,-1.65,-7.6,-9.25,-2.189,-0.898,11.778,-3.277,-4.175
301,2020-01-30_14-37-51,0.342,5.836,-1.652,-7.617,-9.269,-2.187,-0.9,11.537,-3.317,-4.2170000000000005
302,2020-01-30_14-37-54,0.341,5.731,-1.681,-7.622,-9.303,-2.189,-0.9,11.564,-3.331,-4.231
303,2020-01-30_14-37-56,0.342,5.431,-1.699,-7.626,-9.325000000000001,-2.182,-0.9,11.772,-3.337,-4.237
304,2020-01-30_14-37-58,0.342,5.497,-1.71,-7.626,-9.336,-2.177,-0.899,11.624,-3.34,-4.239
305,2020-01-30_14-38-00,0.341,5.592,-1.716,-7.625,-9.341,-2.176,-0.899,11.719,-3.343,-4.242
306,2020-01-30_14-38-02,0.341,5.297,-1.719,-7.623,-9.342,-2.178,-0.898,11.877,-3.343,-4.241
307,2020-01-30_14-38-04,0.341,4.851,-1.722,-7.625,-9.347,-2.175,-0.9,12.399,-3.407,-4.307
308,2020-01-30_14-38-07,0.34,4.913,-1.723,-7.624,-9.347,-2.174,-0.899,12.205,-4.109,-5.008
309,2020-01-30_14-38-09,0.342,5.018,-1.725,-7.626,-9.351,-0.827,-0.899,11.502,-4.503,-5.402
