,datetime,Pmon_PV,Pmon_Gaia,Pmon_Heatpump,Pmon_Heatbooster,Pmon_NFTL,Pmon_Flex1,Pmon_Flex3,Pmon_Grid,Pmon_CEE,Pmon_Cable
0,2020-01-30_14-58-07,0.0,0.0,0.0,0.0,0.0,0.0,0.0,0.0,0.0,0.0
1,2020-01-30_14-58-07,0.158,5.446,-1.723,-7.77,-9.493,-1.898,-0.908,7.024,-0.044,-0.9520000000000001
2,2020-01-30_14-58-11,0.154,5.506,-1.723,-7.774,-9.497,-3.147,-0.908,6.861,-0.044,-0.9520000000000001
3,2020-01-30_14-58-16,0.153,5.443,-1.722,-7.776,-9.498,-3.152,-0.91,8.272,-0.042,-0.9520000000000001
4,2020-01-30_14-58-20,0.151,4.434,-1.722,-7.771,-9.493,-3.146,-0.91,9.11,-0.043,-0.9530000000000001
5,2020-01-30_14-58-22,0.148,4.57,-1.724,-7.763,-9.487,-3.148,-0.91,8.915,-0.042,-0.9520000000000001
6,2020-01-30_14-58-26,0.142,4.747,-1.725,-7.754,-9.479,-3.141,-0.91,8.617,-0.042,-0.9520000000000001
7,2020-01-30_14-58-30,0.141,5.407,-1.726,-7.752,-9.478,-3.145,-0.91,8.136,-0.041,-0.9510000000000001
8,2020-01-30_14-58-31,0.139,5.407,-1.725,-7.756,-9.481,-3.145,-0.91,8.199,-0.04,-0.9500000000000001
9,2020-01-30_14-58-33,0.139,5.123,-1.726,-7.758,-9.484,-3.151,-0.91,8.394,-0.039,-0.9490000000000001
10,2020-01-30_14-58-36,0.135,5.184,-1.728,-7.762,-9.49,-3.145,-0.909,8.387,-0.042,-0.9510000000000001
11,2020-01-30_14-58-39,0.132,5.255,-1.727,-7.757,-9.484,-3.146,-0.909,8.29,-0.043,-0.9520000000000001
12,2020-01-30_14-58-42,0.13,4.578,-1.727,-7.757,-9.484,-3.148,-0.908,9.03,-0.042,-0.9500000000000001
13,2020-01-30_14-58-45,0.127,4.361,-1.726,-7.756,-9.482,-3.144,-0.909,9.419,-0.043,-0.9520000000000001
14,2020-01-30_14-58-48,0.123,3.733,-1.726,-7.749,-9.475,-3.138,-0.909,9.909,-0.041,-0.9500000000000001
15,2020-01-30_14-58-50,0.121,3.178,-1.727,-7.743,-9.47,-3.14,-0.909,10.237,-0.043,-0.9520000000000001
16,2020-01-30_14-58-53,0.119,4.521,-1.727,-7.742,-9.469,-3.14,-0.909,9.303,-0.043,-0.9520000000000001
17,2020-01-30_14-58-55,0.117,4.864,-1.727,-7.743,-9.47,-3.138,-0.909,8.661,-0.043,-0.9520000000000001
18,2020-01-30_14-58-58,0.115,5.091,-1.726,-7.742,-9.468,-3.139,-0.909,8.169,-0.041,-0.9500000000000001
19,2020-01-30_14-59-01,0.112,5.548,-1.725,-7.75,-9.475,-3.137,-0.911,7.78,-0.041,-0.9520000000000001
20,2020-01-30_14-59-04,0.11,5.781,-1.725,-7.755,-9.48,-3.14,-0.911,7.78,-0.039,-0.9500000000000001
21,2020-01-30_14-59-07,0.106,5.678,-1.679,-7.768,-9.447,-3.149,-0.912,7.78,-0.041,-0.9530000000000001
22,2020-01-30_14-59-10,0.105,4.925,-1.667,-7.773,-9.44,-2.85,-0.912,8.513,-0.041,-0.9530000000000001
23,2020-01-30_14-59-13,0.102,4.833,-1.659,-7.771,-9.43,-2.817,-0.911,8.221,-0.042,-0.9530000000000001
24,2020-01-30_14-59-15,0.099,4.988,-1.657,-7.767,-9.424,-2.816,-0.911,8.2,-0.042,-0.9530000000000001
25,2020-01-30_14-59-17,0.097,4.889,-1.656,-7.759,-9.415000000000001,-2.814,-0.911,8.224,-0.042,-0.9530000000000001
26,2020-01-30_14-59-21,0.095,5.436,-1.654,-7.759,-9.413,-2.818,-0.911,8.145,-0.042,-0.9530000000000001
27,2020-01-30_14-59-23,0.093,5.835,-1.652,-7.762,-9.414,-2.819,-0.913,7.404,-0.042,-0.9550000000000001
28,2020-01-30_14-59-25,0.091,5.546,-1.65,-7.761,-9.411,-2.82,-0.882,7.334,-0.042,-0.924
29,2020-01-30_14-59-27,0.091,6.511,-1.649,-7.762,-9.411,-2.818,-0.867,6.564,-0.041,-0.908
30,2020-01-30_14-59-29,0.088,7.177,-1.649,-7.759,-9.408000000000001,-2.814,-0.847,5.886,-0.041,-0.888
31,2020-01-30_14-59-31,0.087,6.996,-1.651,-7.744,-9.395,-2.812,-0.828,5.664,-0.042,-0.87
32,2020-01-30_14-59-35,0.084,7.998,-1.652,-7.744,-9.395999999999999,-2.814,-0.824,5.123,-0.041,-0.865
33,2020-01-30_14-59-37,0.082,8.022,-1.652,-7.747,-9.399,-1.665,-0.822,3.711,-0.042,-0.864
34,2020-01-30_14-59-40,0.081,6.369,-1.667,-7.756,-9.423,-1.563,-0.821,5.65,-0.042,-0.863
35,2020-01-30_14-59-42,0.081,5.722,-1.691,-7.759,-9.450000000000001,-1.567,-0.821,6.029,-0.042,-0.863
36,2020-01-30_14-59-46,0.078,5.714,-1.715,0.0,-1.715,-1.573,-0.822,-1.906,-0.042,-0.864
37,2020-01-30_14-59-49,0.076,5.623,-1.725,0.0,-1.725,-1.571,-0.826,-1.444,-0.043,-0.869
38,2020-01-30_14-59-53,0.074,6.064,-1.728,0.0,-1.728,-1.573,-0.826,-2.157,-0.043,-0.869
39,2020-01-30_14-59-55,0.074,6.064,-1.728,0.0,-1.728,-1.569,-0.826,-3.386,-0.043,-0.869
40,2020-01-30_15-00-00,0.073,7.615,-1.726,0.0,-1.726,-1.572,-0.828,-3.387,-0.043,-0.871
41,2020-01-30_15-00-04,0.071,7.342,-1.725,0.0,-1.725,-1.572,-0.828,-3.247,-0.042,-0.87
42,2020-01-30_15-00-07,0.07,8.201,-1.726,0.0,-1.726,-1.571,-0.828,-4.046,-0.044,-0.872
43,2020-01-30_15-00-12,0.067,7.31,-1.728,0.0,-1.728,-1.571,-0.827,-3.162,-0.044,-0.871
44,2020-01-30_15-00-17,0.065,8.268,-1.726,0.0,-1.726,-2.978,-0.828,-2.721,-0.045,-0.873
45,2020-01-30_15-00-19,0.064,8.038,-1.724,0.0,-1.724,-2.966,-0.828,-2.385,-0.057,-0.885
46,2020-01-30_15-00-22,0.061,7.761,-1.725,0.0,-1.725,-2.968,-0.828,-2.173,-0.059,-0.887
47,2020-01-30_15-00-25,0.059,7.349,-1.725,0.0,-1.725,-2.964,-0.828,-1.727,-0.061,-0.889
48,2020-01-30_15-00-28,0.059,6.633,-1.725,0.0,-1.725,-2.965,-0.83,-1.077,-0.061,-0.891
49,2020-01-30_15-00-31,0.056,6.45,-1.695,0.0,-1.695,-2.971,-0.83,-0.561,-0.062,-0.8919999999999999
50,2020-01-30_15-00-34,0.054,6.143,-1.67,0.0,-1.67,-2.965,-0.828,-0.786,-0.043,-0.871
51,2020-01-30_15-00-37,0.052,6.092,-1.653,0.0,-1.653,-2.966,-0.826,-0.563,-0.045,-0.871
52,2020-01-30_15-00-41,0.051,6.249,-1.648,0.0,-1.648,-2.962,-0.824,-0.879,-0.021,-0.845
53,2020-01-30_15-00-43,0.05,6.645,-1.644,0.0,-1.644,-2.967,-0.824,-1.676,-0.015,-0.839
54,2020-01-30_15-00-47,0.047,6.903,-1.641,-1.884,-3.525,-2.964,-0.823,-1.361,-0.014,-0.837
55,2020-01-30_15-00-50,0.045,6.372,-1.639,-7.465,-9.104,-2.947,-0.82,6.972,-0.012,-0.832
56,2020-01-30_15-00-54,0.044,5.411,-1.65,-7.666,-9.316,-2.944,-0.815,7.908,-0.012,-0.827
57,2020-01-30_15-00-59,0.042,5.077,-1.684,-7.716,-9.4,-2.946,-0.815,8.062,-0.012,-0.827
58,2020-01-30_15-01-00,0.041,5.706,-1.697,-7.734,-9.431000000000001,-2.944,-0.814,7.541,-0.011,-0.825
59,2020-01-30_15-01-02,0.041,5.785,-1.712,-7.751,-9.463000000000001,-2.944,-0.818,7.549,-0.016,-0.834
60,2020-01-30_15-01-05,0.04,5.622,-1.717,-7.763,-9.48,-2.944,-0.82,7.721,-0.02,-0.84
61,2020-01-30_15-01-08,0.04,5.561,-1.718,-7.764,-9.482,-2.944,-0.823,7.666,-0.022,-0.845
62,2020-01-30_15-01-12,0.039,5.854,-1.719,-7.765,-9.484,-2.939,-0.823,7.353,-0.021,-0.844
63,2020-01-30_15-01-13,0.039,6.397,-1.72,-7.771,-9.491,-2.939,-0.823,6.847,-0.022,-0.845
64,2020-01-30_15-01-17,0.038,6.613,-1.72,-7.78,-9.5,-2.949,-0.823,6.799,-0.023,-0.846
65,2020-01-30_15-01-19,0.037,6.484,-1.721,-7.787,-9.508,-2.949,-0.824,7.008,-0.023,-0.847
66,2020-01-30_15-01-23,0.037,6.111,-1.721,-7.79,-9.511,-2.948,-0.824,7.207,-0.023,-0.847
67,2020-01-30_15-01-25,0.037,5.478,-1.721,-7.789,-9.51,-2.946,-0.824,8.066,-0.022,-0.846
68,2020-01-30_15-01-30,0.037,5.484,-1.721,-7.788,-9.509,-2.939,-1.673,8.123,-0.022,-1.695
69,2020-01-30_15-01-33,0.038,5.512,-1.722,-7.779,-9.501,-4.306,-1.727,10.047,-0.023,-1.75
70,2020-01-30_15-01-35,0.036,5.572,-1.723,-7.765,-9.488,-4.305,-1.739,10.051,-0.023,-1.762
71,2020-01-30_15-01-38,0.037,6.027,-1.723,-7.752,-9.475,-4.269,-1.743,9.577,-0.024,-1.7670000000000001
72,2020-01-30_15-01-41,0.037,5.542,-1.722,-7.728,-9.45,-4.261,-1.739,9.918,-0.034,-1.7730000000000001
73,2020-01-30_15-01-44,0.036,6.112,-1.72,-7.697,-9.417,-2.913,-1.732,8.705,-0.038,-1.77
74,2020-01-30_15-01-48,0.036,7.683,-1.72,-7.703,-9.423,-2.916,-1.733,7.114,-0.041,-1.774
75,2020-01-30_15-01-50,0.035,7.509,-1.721,-7.718,-9.439,-2.922,-1.738,6.755,-0.042,-1.78
76,2020-01-30_15-01-53,0.035,7.313,-1.722,-7.724,-9.446,-2.92,-1.738,6.895,-0.043,-1.781
77,2020-01-30_15-01-55,0.035,7.072,-1.723,-7.733,-9.456,-2.915,-1.735,7.081,-0.044,-1.7790000000000001
78,2020-01-30_15-01-57,0.035,7.171,-1.723,-7.739,-9.462,-2.917,-1.734,6.932,-0.043,-1.777
79,2020-01-30_15-02-02,0.034,7.112,-1.722,-7.735,-9.457,-2.912,-1.734,6.939,-0.043,-1.777
80,2020-01-30_15-02-07,0.033,7.204,-1.722,-7.737,-9.459,-2.914,-1.732,6.991,-0.044,-1.776
81,2020-01-30_15-02-08,0.033,7.21,-1.724,-7.74,-9.464,-2.915,-1.732,7.049,-0.043,-1.775
82,2020-01-30_15-02-11,0.033,7.245,-1.726,-7.745,-9.471,-2.919,-1.733,6.96,-0.043,-1.776
83,2020-01-30_15-02-14,0.032,7.333,-1.726,-7.748,-9.474,-2.914,-1.734,6.776,-0.042,-1.776
84,2020-01-30_15-02-17,0.032,6.96,-1.726,-7.74,-9.466000000000001,-2.903,-1.73,7.216,-0.043,-1.773
85,2020-01-30_15-02-19,0.031,6.424,-1.725,-7.728,-9.453,-2.902,-1.73,7.79,-0.042,-1.772
86,2020-01-30_15-02-21,0.03,6.453,-1.724,-7.726,-9.45,-2.906,-1.729,7.629,-0.043,-1.772
87,2020-01-30_15-02-23,0.031,6.482,-1.723,-7.725,-9.448,-2.906,-1.728,7.64,-0.043,-1.771
88,2020-01-30_15-02-25,0.03,6.44,-1.722,-7.723,-9.445,-2.898,-1.726,7.789,-0.042,-1.768
89,2020-01-30_15-02-26,0.031,5.864,-1.722,-7.712,-9.434,-2.897,-1.724,8.055,-0.042,-1.766
90,2020-01-30_15-02-29,0.029,6.209,-1.723,-7.703,-9.426,-2.904,-1.724,7.855,-0.043,-1.767
91,2020-01-30_15-02-31,0.03,6.593,-1.723,-7.704,-9.427,-2.904,-1.725,7.561,-0.042,-1.7670000000000001
92,2020-01-30_15-02-33,0.029,6.505,-1.723,-7.705,-9.428,-2.897,-1.727,7.647,-0.043,-1.77
93,2020-01-30_15-02-36,0.027,6.507,-1.723,-7.699,-9.422,-2.897,-1.727,7.683,-0.042,-1.7690000000000001
94,2020-01-30_15-02-38,0.028,6.438,-1.722,-7.699,-9.421,-2.901,-1.726,7.667,-0.043,-1.769
95,2020-01-30_15-02-39,0.027,6.343,-1.721,-7.702,-9.423,-2.902,-1.727,7.731,-0.042,-1.7690000000000001
96,2020-01-30_15-02-40,0.026,6.263,-1.719,-7.71,-9.429,-2.903,-1.727,0.354,-0.042,-1.7690000000000001
97,2020-01-30_15-02-43,0.024,6.113,-1.72,0.0,-1.72,-2.912,-1.736,0.483,-0.042,-1.778
98,2020-01-30_15-02-44,0.025,5.858,-1.719,0.0,-1.719,-2.912,-1.737,0.588,-0.043,-1.78
99,2020-01-30_15-02-46,0.025,5.898,-1.719,0.0,-1.719,-2.906,-1.738,0.48,-0.042,-1.78
100,2020-01-30_15-02-47,0.024,6.392,-1.721,0.0,-1.721,-2.907,-1.737,0.036,-0.041,-1.778
101,2020-01-30_15-02-49,0.026,6.337,-1.723,0.0,-1.723,-2.908,-1.737,0.206,-0.042,-1.7790000000000001
102,2020-01-30_15-02-51,0.027,6.285,-1.724,0.0,-1.724,-2.912,-1.738,0.148,-0.042,-1.78
103,2020-01-30_15-02-52,0.027,6.235,-1.726,0.0,-1.726,-2.91,-1.74,0.254,-0.042,-1.782
104,2020-01-30_15-02-54,0.026,5.781,-1.726,0.0,-1.726,-2.914,-1.741,0.747,-0.042,-1.7830000000000001
105,2020-01-30_15-02-55,0.025,5.701,-1.728,0.0,-1.728,-2.911,-1.741,0.804,-0.042,-1.7830000000000001
106,2020-01-30_15-02-57,0.026,5.821,-1.727,0.0,-1.727,-2.91,-1.741,0.62,-0.041,-1.782
107,2020-01-30_15-02-58,0.025,5.512,-1.727,0.0,-1.727,-2.909,-1.74,5.314,-0.042,-1.782
108,2020-01-30_15-02-59,0.025,5.436,-1.727,0.0,-1.727,-2.894,-1.736,6.204,-1.134,-2.87
109,2020-01-30_15-03-01,0.024,5.089,-1.726,0.0,-1.726,-2.888,-1.729,6.422,-1.723,-3.452
110,2020-01-30_15-03-02,0.023,5.104,-1.726,0.0,-1.726,-2.889,-1.726,6.556,-2.228,-3.954
111,2020-01-30_15-03-04,0.023,5.134,-1.725,0.0,-1.725,-2.888,-1.724,6.413,-3.536,-5.26
112,2020-01-30_15-03-05,0.024,5.257,-1.726,0.0,-1.726,-2.885,-1.721,6.278,-3.959,-5.68
113,2020-01-30_15-03-07,0.023,5.383,-1.726,0.0,-1.726,-2.887,-1.719,6.297,-4.51,-6.229
114,2020-01-30_15-03-08,0.022,4.961,-1.728,0.0,-1.728,-2.882,-1.718,6.534,-4.687,-6.405
115,2020-01-30_15-03-10,0.023,4.817,-1.728,0.0,-1.728,-2.268,-1.716,6.857,-4.997,-6.713
116,2020-01-30_15-03-12,0.022,4.098,-1.727,0.0,-1.727,-1.55,-1.718,6.038,-5.053,-6.771
117,2020-01-30_15-03-14,0.021,3.743,-1.727,0.0,-1.727,-1.55,-1.719,6.402,-5.125,-6.844
118,2020-01-30_15-03-15,0.021,3.595,-1.725,0.0,-1.725,-1.55,-1.72,6.742,-5.165,-6.885
119,2020-01-30_15-03-17,0.022,3.488,-1.725,0.0,-1.725,-1.55,-1.721,6.847,-5.18,-6.901
120,2020-01-30_15-03-18,0.02,3.68,-1.724,0.0,-1.724,-1.55,-1.722,6.498,-5.2,-6.922000000000001
121,2020-01-30_15-03-20,0.021,4.355,-1.724,0.0,-1.724,-1.546,-1.723,6.112,-5.206,-6.929
122,2020-01-30_15-03-21,0.02,4.389,-1.724,0.0,-1.724,-1.549,-1.723,5.914,-5.214,-6.937
123,2020-01-30_15-03-23,0.02,4.239,-1.724,0.0,-1.724,-1.85,-1.725,5.799,-5.176,-6.901
124,2020-01-30_15-03-25,0.021,4.104,-1.713,0.0,-1.713,-1.709,-1.725,5.667,-4.989,-6.714
125,2020-01-30_15-03-26,0.02,3.732,-1.7,0.0,-1.7,-1.889,-1.725,5.895,-4.725,-6.449999999999999
126,2020-01-30_15-03-27,0.019,3.505,-1.682,0.0,-1.682,-1.891,-1.725,6.247,-4.578,-6.303000000000001
127,2020-01-30_15-03-29,0.019,3.48,-1.676,0.0,-1.676,-1.89,-1.725,6.232,-4.527,-6.252000000000001
128,2020-01-30_15-03-31,0.018,3.223,-1.666,0.0,-1.666,-1.892,-1.725,6.617,-4.465,-6.1899999999999995
129,2020-01-30_15-03-32,0.019,2.713,-1.663,0.0,-1.663,-1.893,-1.726,6.643,-4.444,-6.17
130,2020-01-30_15-03-34,0.02,2.801,-1.656,0.0,-1.656,-1.896,-1.729,5.439,-3.741,-5.470000000000001
131,2020-01-30_15-03-36,0.018,2.957,-1.655,0.0,-1.655,-1.897,-1.731,5.314,-3.302,-5.033
132,2020-01-30_15-03-39,0.017,2.836,-1.653,0.0,-1.653,-1.897,-1.732,5.52,-3.223,-4.955
133,2020-01-30_15-03-40,0.018,2.735,-1.653,0.0,-1.653,-1.897,-1.733,5.624,-3.164,-4.897
134,2020-01-30_15-03-41,0.017,2.696,-1.653,0.0,-1.653,-1.897,-1.733,5.608,-3.084,-4.817
135,2020-01-30_15-03-43,0.015,2.801,-1.652,0.0,-1.652,-1.9,-1.734,4.535,-2.816,-4.55
136,2020-01-30_15-03-44,0.016,3.071,-1.653,0.0,-1.653,-1.901,-1.736,2.307,-1.697,-3.433
137,2020-01-30_15-03-46,0.016,3.268,-1.651,0.0,-1.651,-1.902,-1.741,2.157,-1.304,-3.045
138,2020-01-30_15-03-48,0.015,3.155,-1.652,0.0,-1.652,-1.901,-1.743,2.327,-0.775,-2.5180000000000002
139,2020-01-30_15-03-49,0.015,2.641,-1.651,0.0,-1.651,-1.9,-1.744,2.566,-0.601,-2.3449999999999998
140,2020-01-30_15-03-50,0.015,2.635,-1.65,0.0,-1.65,-1.898,-1.744,2.494,-0.368,-2.112
141,2020-01-30_15-03-52,0.014,2.771,-1.65,0.0,-1.65,-1.9,-1.744,2.546,-0.291,-2.035
142,2020-01-30_15-03-53,0.014,2.799,-1.649,0.0,-1.649,-1.897,-1.744,3.743,-0.244,-1.988
143,2020-01-30_15-03-55,0.014,2.82,-1.65,0.0,-1.65,-1.895,-1.742,4.096,-0.732,-2.474
144,2020-01-30_15-03-56,0.014,2.743,-1.652,0.0,-1.652,-1.892,-1.74,4.188,-1.12,-2.8600000000000003
145,2020-01-30_15-03-58,0.013,2.866,-1.68,-7.539,-9.219,-1.886,-1.731,11.793,-1.332,-3.063
146,2020-01-30_15-04-00,0.013,2.779,-1.706,-7.626,-9.332,-1.885,-1.726,11.93,-1.451,-3.177
147,2020-01-30_15-04-03,0.013,2.579,-1.711,-7.64,-9.350999999999999,-1.882,-1.725,12.148,-1.516,-3.241
148,2020-01-30_15-04-04,0.013,2.076,-1.714,-7.654,-9.368,-1.882,-1.721,12.395,-1.537,-3.258
149,2020-01-30_15-04-06,0.013,1.971,-1.718,-7.661,-9.379,-1.879,-1.718,12.734,-1.565,-3.283
150,2020-01-30_15-04-08,0.011,2.276,-1.719,-7.662,-9.381,-1.881,-1.717,11.531,-1.573,-3.29
151,2020-01-30_15-04-09,0.01,2.572,-1.72,-7.671,-9.391,-1.884,-0.948,11.297,-1.585,-2.533
152,2020-01-30_15-04-10,0.01,2.871,-1.721,-7.675,-9.396,-1.886,-0.888,10.925,-1.594,-2.482
153,2020-01-30_15-04-12,0.01,2.777,-1.722,-7.684,-9.406,-1.886,-0.869,10.977,-1.597,-2.466
154,2020-01-30_15-04-14,0.009,2.892,-1.724,-7.688,-9.411999999999999,-1.889,-0.844,10.851,-1.597,-2.441
155,2020-01-30_15-04-15,0.009,2.874,-1.725,-7.692,-9.417,-1.889,-0.836,10.959,-1.6,-2.436
156,2020-01-30_15-04-17,0.009,2.811,-1.725,-7.697,-9.422,-1.887,-0.831,11.013,-1.6,-2.431
157,2020-01-30_15-04-18,0.009,3.078,-1.725,-7.701,-9.426,-1.888,-0.825,10.531,-1.601,-2.426
158,2020-01-30_15-04-20,0.008,4.57,-1.723,-7.702,-9.425,-1.887,-0.821,9.478,-1.604,-2.425
159,2020-01-30_15-04-22,0.009,4.415,-1.723,-7.699,-9.422,-1.885,-0.818,12.037,-2.307,-3.125
160,2020-01-30_15-04-24,0.007,4.383,-1.724,-7.688,-9.411999999999999,-1.882,-0.815,12.143,-2.819,-3.634
161,2020-01-30_15-04-25,0.007,4.597,-1.724,-7.68,-9.404,-1.883,-0.815,11.944,-3.201,-4.016
162,2020-01-30_15-04-27,0.007,4.551,-1.725,-7.675,-9.4,-1.882,-0.813,12.056,-3.704,-4.517
163,2020-01-30_15-04-28,0.008,4.615,-1.726,-7.658,-9.384,-1.875,-0.812,11.961,-3.988,-4.8
164,2020-01-30_15-04-31,0.006,4.395,-1.725,-7.642,-9.367,-1.864,-0.81,12.09,-4.148,-4.958
165,2020-01-30_15-04-32,0.005,4.359,-1.725,-7.622,-9.347,-1.868,-0.807,12.089,-4.2,-5.007000000000001
166,2020-01-30_15-04-34,0.005,4.219,-1.726,-7.622,-9.347999999999999,-1.874,-0.807,12.299,-4.266,-5.073
167,2020-01-30_15-04-35,0.006,4.434,-1.726,-7.628,-9.354,-1.876,-0.808,12.183,-4.288,-5.096
168,2020-01-30_15-04-36,0.007,4.406,-1.726,-7.632,-9.358,-1.877,-0.808,12.108,-4.317,-5.125
169,2020-01-30_15-04-38,0.007,4.384,-1.726,-7.636,-9.362,-1.875,-0.809,11.989,-4.325,-5.134
170,2020-01-30_15-04-39,0.006,4.498,-1.726,-7.634,-9.36,-1.871,-0.808,11.968,-4.339,-5.147
171,2020-01-30_15-04-41,0.007,4.859,-1.726,-7.628,-9.354,-1.87,-0.807,11.375,-4.343,-5.15
172,2020-01-30_15-04-42,0.007,5.184,-1.726,-7.623,-9.349,-1.873,-0.806,11.227,-4.344,-5.15
173,2020-01-30_15-04-44,0.008,5.096,-1.727,-7.625,-9.352,-1.874,-0.806,11.366,-4.35,-5.156
174,2020-01-30_15-04-45,0.008,5.232,-1.727,-7.636,-9.363,-1.878,-0.806,9.702,-4.315,-5.121
175,2020-01-30_15-04-47,0.009,5.663,-1.728,-7.644,-9.372,-1.876,-0.808,9.331,-3.747,-4.555
176,2020-01-30_15-04-48,0.009,6.248,-1.728,-7.648,-9.376,-1.872,-0.808,8.895,-3.549,-4.357
177,2020-01-30_15-04-49,0.009,6.331,-1.727,-7.641,-9.368,-1.874,-0.807,8.667,-3.292,-4.099
178,2020-01-30_15-04-51,0.009,6.063,-1.728,-7.642,-9.370000000000001,-1.877,-0.809,8.954,-3.209,-4.018
179,2020-01-30_15-04-52,0.007,5.771,-1.728,-7.653,-9.381,-1.877,-0.81,10.862,-3.767,-4.577
180,2020-01-30_15-04-55,0.0,5.758,-1.727,-7.653,-9.379999999999999,-1.878,-0.813,10.996,-3.952,-4.765
181,2020-01-30_15-04-56,0.0,5.874,-1.727,-7.653,-9.379999999999999,-1.874,-0.813,10.769,-4.099,-4.912
182,2020-01-30_15-04-58,0.0,6.212,-1.727,-7.65,-9.377,-1.87,-0.812,10.426,-4.293,-5.105
183,2020-01-30_15-04-59,0.0,6.378,-1.717,-7.635,-9.352,-1.868,-0.811,10.294,-4.353,-5.164
184,2020-01-30_15-05-01,0.0,6.293,-1.703,-7.637,-9.34,-1.874,-0.811,10.348,-4.439,-5.25
185,2020-01-30_15-05-02,0.0,5.957,-1.683,-7.639,-9.322000000000001,-1.874,-0.811,11.016,-4.473,-5.284
186,2020-01-30_15-05-04,0.0,5.879,-1.677,-7.639,-9.316,-1.875,-0.81,11.226,-4.68,-5.49
187,2020-01-30_15-05-05,0.0,6.333,-1.667,-7.64,-9.307,-1.876,-0.811,10.696,-4.752,-5.563
188,2020-01-30_15-05-07,0.0,6.52,-1.661,-7.641,-9.302,-1.878,-0.812,10.861,-4.877,-5.689
189,2020-01-30_15-05-09,0.0,6.402,-1.658,-7.644,-9.302,-1.879,-0.811,10.848,-4.916,-5.727
190,2020-01-30_15-05-11,0.0,6.012,-1.656,-7.643,-9.299,-1.874,-0.811,11.224,-4.929,-5.74
191,2020-01-30_15-05-13,0.0,5.667,-1.655,-7.64,-9.295,-1.871,-0.812,12.086,-5.106,-5.918
192,2020-01-30_15-05-14,0.0,5.368,-1.655,-7.634,-9.289,-1.868,-0.812,12.22,-5.211,-6.023000000000001
193,2020-01-30_15-05-16,0.0,5.191,-1.654,-7.63,-9.283999999999999,-1.867,-0.81,12.3,-5.35,-6.16
194,2020-01-30_15-05-17,0.0,5.342,-1.653,-7.623,-9.276,-1.868,-0.812,12.216,-5.428,-6.24
195,2020-01-30_15-05-19,0.0,4.941,-1.652,-7.622,-9.274,-1.87,-0.813,12.461,-5.454,-6.2669999999999995
196,2020-01-30_15-05-20,0.0,4.833,-1.652,-7.624,-9.276,-1.872,-0.812,12.676,-5.471,-6.283
197,2020-01-30_15-05-22,0.0,4.912,-1.651,-7.626,-9.277000000000001,-1.873,-0.811,12.652,-5.484,-6.295
198,2020-01-30_15-05-23,0.0,5.091,-1.651,-7.63,-9.281,-1.874,-0.81,11.657,-5.3,-6.109999999999999
199,2020-01-30_15-05-24,0.0,5.035,-1.651,-7.637,-9.288,-1.874,-0.809,11.778,-5.002,-5.811
200,2020-01-30_15-05-26,0.0,4.768,-1.65,-7.639,-9.289,-1.872,-0.809,11.954,-4.906,-5.715
201,2020-01-30_15-05-27,0.0,4.709,-1.65,-7.639,-9.289,-1.872,-0.809,12.135,-4.779,-5.588
202,2020-01-30_15-05-29,0.0,4.371,-1.649,-7.639,-9.288,-1.873,-0.808,12.396,-4.684,-5.492
203,2020-01-30_15-05-32,0.0,4.379,-1.649,-7.641,-9.29,-1.873,-0.808,12.218,-4.605,-5.413
204,2020-01-30_15-05-34,0.0,4.051,-1.649,-7.64,-9.289,-1.871,-0.809,12.518,-4.554,-5.363
205,2020-01-30_15-05-35,0.0,3.524,-1.65,-7.637,-9.286999999999999,-1.871,-0.81,12.991,-4.517,-5.327
206,2020-01-30_15-05-37,0.0,3.455,-1.651,-7.636,-9.287,-1.872,-0.81,13.052,-4.469,-5.279
207,2020-01-30_15-05-38,0.0,3.68,-1.652,-7.639,-9.291,-1.874,-0.81,12.754,-4.454,-5.263999999999999
208,2020-01-30_15-05-40,0.0,3.719,-1.654,-7.644,-9.298,-1.876,-0.811,12.89,-4.415,-5.226
209,2020-01-30_15-05-44,0.0,3.562,-1.68,-7.656,-9.336,-1.877,-0.81,13.06,-4.412,-5.2219999999999995
210,2020-01-30_15-05-46,0.0,3.679,-1.69,-7.658,-9.348,-1.875,-0.809,12.936,-4.409,-5.218
211,2020-01-30_15-05-47,0.0,3.382,-1.705,-7.657,-9.362,-1.875,-0.809,13.104,-4.406,-5.215
212,2020-01-30_15-05-49,0.0,3.178,-1.709,0.0,-1.709,-2.576,-0.808,6.243,-4.407,-5.215
213,2020-01-30_15-05-51,0.0,3.055,-1.718,0.0,-1.718,-2.68,-0.81,6.574,-4.422,-5.231999999999999
214,2020-01-30_15-05-52,0.0,3.542,-1.722,0.0,-1.722,-2.675,-0.81,6.335,-4.427,-5.237
215,2020-01-30_15-05-54,0.0,3.658,-1.724,0.0,-1.724,-2.679,-0.812,2.505,-3.565,-4.377
216,2020-01-30_15-05-55,0.0,4.144,-1.725,0.0,-1.725,-2.691,-0.814,1.349,-2.091,-2.9050000000000002
217,2020-01-30_15-05-58,0.0,3.999,-1.724,0.0,-1.724,-2.685,-0.816,1.394,-1.221,-2.037
218,2020-01-30_15-05-59,0.0,4.46,-1.723,0.0,-1.723,-2.684,-0.818,1.154,-0.72,-1.5379999999999998
219,2020-01-30_15-06-02,0.0,4.677,-1.723,0.0,-1.723,-2.682,-0.818,1.48,-0.452,-1.27
220,2020-01-30_15-06-03,0.0,4.398,-1.724,0.0,-1.724,-2.676,-0.817,3.069,-0.896,-1.713
221,2020-01-30_15-06-05,0.0,4.23,-1.725,0.0,-1.725,-2.68,-0.816,4.077,-1.827,-2.643
222,2020-01-30_15-06-06,0.0,4.162,-1.725,0.0,-1.725,-2.68,-0.815,4.115,-2.129,-2.944
223,2020-01-30_15-06-08,0.0,4.104,-1.726,0.0,-1.726,-2.683,-0.814,4.207,-2.525,-3.339
224,2020-01-30_15-06-09,0.0,3.816,-1.726,0.0,-1.726,-2.684,-0.814,4.377,-2.651,-3.465
225,2020-01-30_15-06-11,0.0,3.635,-1.725,0.0,-1.725,-2.685,-0.815,4.73,-2.818,-3.633
226,2020-01-30_15-06-12,0.0,3.257,-1.724,0.0,-1.724,-2.683,-0.815,4.892,-2.838,-3.653
227,2020-01-30_15-06-14,0.0,2.957,-1.723,0.0,-1.723,-2.685,-0.815,3.942,-2.359,-3.174
228,2020-01-30_15-06-15,0.0,3.557,-1.722,0.0,-1.722,-2.684,-0.816,3.708,-2.183,-2.9989999999999997
229,2020-01-30_15-06-16,0.0,4.04,-1.722,0.0,-1.722,-2.685,-0.816,2.763,-2.051,-2.867
230,2020-01-30_15-06-18,0.0,4.494,-1.722,0.0,-1.722,-2.687,-0.816,2.319,-1.877,-2.693
231,2020-01-30_15-06-19,0.0,5.445,-1.723,0.0,-1.723,-2.689,-0.817,0.98,-1.822,-2.6390000000000002
232,2020-01-30_15-06-21,0.0,6.274,-1.724,0.0,-1.724,-2.687,-0.817,0.591,-1.749,-2.566
233,2020-01-30_15-06-22,0.0,5.753,-1.724,0.0,-1.724,-2.685,-0.818,2.214,-1.735,-2.553
234,2020-01-30_15-06-24,0.0,6.136,-1.725,0.0,-1.725,-2.684,-0.819,2.206,-2.441,-3.26
235,2020-01-30_15-06-26,0.0,5.931,-1.725,0.0,-1.725,-2.685,-0.819,2.338,-2.588,-3.407
236,2020-01-30_15-06-27,0.0,7.199,-1.724,0.0,-1.724,-2.687,-0.818,1.641,-2.7,-3.5180000000000002
237,2020-01-30_15-06-28,0.001,7.509,-1.725,0.0,-1.725,-2.687,-0.817,0.709,-2.846,-3.6630000000000003
238,2020-01-30_15-06-30,0.0,7.681,-1.725,0.0,-1.725,-2.686,-0.818,0.475,-2.892,-3.71
239,2020-01-30_15-06-31,0.0,6.201,-1.726,0.0,-1.726,-2.685,-0.818,1.389,-2.955,-3.773
240,2020-01-30_15-06-33,0.0,5.047,-1.726,0.0,-1.726,-2.36,-0.816,2.216,-2.974,-3.79
241,2020-01-30_15-06-34,0.0,4.443,-1.726,0.0,-1.726,-2.343,-0.816,5.677,-3.556,-4.372
242,2020-01-30_15-06-36,0.0,6.491,-1.726,0.0,-1.726,-2.354,-0.814,5.318,-4.018,-4.832
243,2020-01-30_15-06-37,0.0,7.634,-1.726,0.0,-1.726,-2.348,-0.814,3.448,-4.622,-5.436
244,2020-01-30_15-06-40,0.0,8.416,-1.726,0.0,-1.726,-2.35,-0.814,1.869,-4.964,-5.7780000000000005
245,2020-01-30_15-06-42,0.0,9.23,-1.726,0.0,-1.726,-2.351,-0.814,1.462,-5.288,-6.102
246,2020-01-30_15-06-44,0.0,9.36,-1.725,0.0,-1.725,-2.353,-0.814,1.563,-5.405,-6.219
247,2020-01-30_15-06-46,0.0,9.191,-1.725,0.0,-1.725,-2.352,-0.815,1.539,-5.556,-6.371
248,2020-01-30_15-06-47,0.0,8.995,-1.725,0.0,-1.725,-2.348,-0.815,1.726,-5.607,-6.422000000000001
249,2020-01-30_15-06-48,0.0,8.915,-1.726,0.0,-1.726,-2.351,-0.814,1.785,-5.689,-6.503
250,2020-01-30_15-06-51,0.0,8.583,-1.728,0.0,-1.728,-2.352,-0.815,2.078,-5.705,-6.52
251,2020-01-30_15-06-52,0.0,8.483,-1.728,0.0,-1.728,-2.352,-0.815,4.017,-6.12,-6.9350000000000005
252,2020-01-30_15-06-54,0.0,8.086,-1.729,0.0,-1.729,-2.349,-0.814,4.484,-6.732,-7.546
253,2020-01-30_15-06-56,0.0,8.386,-1.713,0.0,-1.713,-2.349,-0.814,11.493,-6.931,-7.745
254,2020-01-30_15-06-58,0.0,8.459,-1.699,-6.646,-8.345,-2.341,-0.812,11.41,-7.175,-7.987
255,2020-01-30_15-06-59,0.0,8.324,-1.681,-7.086,-8.767,-2.34,-0.812,11.911,-7.246,-8.058
256,2020-01-30_15-07-01,0.0,8.002,-1.671,-7.228,-8.899,-2.34,-0.811,12.231,-7.341,-8.152000000000001
257,2020-01-30_15-07-03,0.0,8.582,-1.668,-7.413,-9.081,-2.339,-0.811,11.329,-7.369,-8.18
258,2020-01-30_15-07-04,0.0,8.5,-1.664,-7.474,-9.138,-2.337,-0.811,11.301,-7.365,-8.176
259,2020-01-30_15-07-05,0.0,8.374,-1.664,-7.552,-9.216,-2.341,-0.811,11.595,-7.36,-8.171000000000001
260,2020-01-30_15-07-07,0.0,8.363,-1.663,-7.579,-9.241999999999999,-2.339,-0.81,11.623,-7.359,-8.169
261,2020-01-30_15-07-08,0.0,8.358,-1.662,-7.611,-9.273,-2.338,-0.809,11.706,-7.354,-8.163
262,2020-01-30_15-07-10,0.0,8.123,-1.662,-7.619,-9.280999999999999,-2.334,-0.808,12.0,-7.355,-8.163
263,2020-01-30_15-07-11,0.0,7.993,-1.66,-7.629,-9.289,-2.336,-0.807,11.912,-7.354,-8.161
264,2020-01-30_15-07-13,0.0,8.405,-1.658,-7.637,-9.295,-2.338,-0.807,11.621,-7.431,-8.238
265,2020-01-30_15-07-16,0.0,8.389,-1.656,-7.641,-9.297,-2.336,-0.806,11.817,-7.445,-8.251000000000001
266,2020-01-30_15-07-18,0.0,8.233,-1.655,-7.637,-9.292,-2.336,-0.806,11.909,-7.458,-8.264
267,2020-01-30_15-07-19,0.0,8.044,-1.654,-7.634,-9.288,-2.336,-0.806,12.086,-7.473,-8.279
268,2020-01-30_15-07-20,0.0,8.02,-1.654,-7.633,-9.286999999999999,-2.336,-0.806,12.098,-7.479,-8.285
269,2020-01-30_15-07-22,0.0,8.039,-1.654,-7.635,-9.289,-2.335,-0.806,12.105,-7.483,-8.289
270,2020-01-30_15-07-23,0.0,7.644,-1.654,-7.634,-9.288,-2.333,-0.805,12.559,-7.498,-8.303
271,2020-01-30_15-07-25,0.0,7.304,-1.654,-7.631,-9.285,-2.328,-0.805,12.619,-7.532,-8.337
272,2020-01-30_15-07-27,0.0,7.186,-1.654,-7.621,-9.275,-2.325,-0.806,13.089,-7.538,-8.344000000000001
273,2020-01-30_15-07-28,0.0,7.588,-1.654,-7.619,-9.273,-2.325,-0.805,12.81,-7.544,-8.349
274,2020-01-30_15-07-30,0.0,7.66,-1.654,-7.62,-9.274000000000001,-2.329,-0.805,12.556,-7.549,-8.354000000000001
275,2020-01-30_15-07-31,0.0,7.223,-1.654,-7.623,-9.277000000000001,-2.324,-0.804,12.498,-7.303,-8.107
276,2020-01-30_15-07-34,0.0,7.028,-1.653,-7.623,-9.276,-2.326,-0.804,12.411,-7.219,-8.023
277,2020-01-30_15-07-35,0.0,6.887,-1.654,-7.624,-9.277999999999999,-2.324,-0.804,12.681,-7.107,-7.9110000000000005
278,2020-01-30_15-07-37,0.0,7.567,-1.655,-7.625,-9.28,-2.329,-0.805,11.96,-7.044,-7.848999999999999
279,2020-01-30_15-07-39,0.0,7.268,-1.655,-7.625,-9.28,-2.327,-0.806,12.388,-7.025,-7.831
280,2020-01-30_15-07-41,0.0,7.075,-1.655,-7.626,-9.281,-2.33,-0.806,12.483,-6.998,-7.804
281,2020-01-30_15-07-42,0.0,7.463,-1.655,-7.635,-9.29,-2.329,-0.806,12.113,-6.753,-7.559
282,2020-01-30_15-07-48,0.0,6.863,-1.655,-7.641,-9.296,-2.329,-0.807,12.076,-6.666,-7.473000000000001
283,2020-01-30_15-07-53,0.0,7.205,-1.693,-7.642,-9.335,-3.617,-0.807,12.887,-6.651,-7.458
284,2020-01-30_15-07-56,0.0,6.753,-1.716,-7.638,-9.354,-3.718,-0.808,13.949,-6.642,-7.45
285,2020-01-30_15-07-59,0.0,6.84,-1.719,-7.637,-9.356,-3.722,-0.808,13.93,-6.638,-7.446
286,2020-01-30_15-08-03,0.0,6.908,-1.723,-7.643,-9.366,-2.337,-0.808,12.548,-6.638,-7.446
287,2020-01-30_15-08-05,0.0,6.924,-1.724,-7.651,-9.375,-2.341,-0.81,11.811,-6.443,-7.253
288,2020-01-30_15-08-08,0.0,7.191,-1.723,-7.665,-9.388,-2.345,-0.815,11.683,-6.266,-7.0809999999999995
289,2020-01-30_15-08-11,0.0,7.23,-1.722,-7.675,-9.397,-2.342,-0.816,11.74,-6.222,-7.038
290,2020-01-30_15-08-14,0.0,6.985,-1.722,-7.683,-9.405,-2.342,-0.814,12.331,-6.251,-7.065
291,2020-01-30_15-08-16,0.0,6.823,-1.723,-7.683,-9.406,-2.339,-0.812,11.988,-6.301,-7.113
292,2020-01-30_15-08-18,0.0,6.924,-1.723,-7.677,-9.4,-2.338,-0.811,12.128,-6.327,-7.138
293,2020-01-30_15-08-22,0.0,7.293,-1.721,-7.675,-9.396,-2.335,-0.812,11.707,-6.309,-7.121
294,2020-01-30_15-08-26,0.0,7.364,-1.721,-7.666,-9.387,-2.334,-0.814,11.475,-6.273,-7.087
295,2020-01-30_15-08-29,0.0,7.029,-1.723,-7.665,-9.388,-2.333,-0.811,12.032,-6.264,-7.075
296,2020-01-30_15-08-33,0.0,6.416,-1.725,-7.665,-9.39,-1.552,-0.811,12.196,-6.261,-7.072
297,2020-01-30_15-08-35,0.0,5.682,-1.725,-7.657,-9.382,-1.551,-0.819,12.194,-6.304,-7.123
298,2020-01-30_15-08-39,0.0,6.275,-1.723,-7.646,-9.369,-1.552,-0.816,11.922,-6.331,-7.147
299,2020-01-30_15-08-43,0.0,6.362,-1.724,-7.654,-9.378,-1.556,-0.815,10.992,-6.056,-6.871
300,2020-01-30_15-08-46,0.0,6.791,-1.724,-7.661,-9.385,-1.557,-0.814,10.867,-5.917,-6.731
301,2020-01-30_15-08-48,0.0,7.093,-1.725,-7.665,-9.39,-1.559,-0.815,10.554,-5.816,-6.631
302,2020-01-30_15-08-52,0.0,6.768,-1.727,-7.675,-9.402,-1.558,-0.814,10.947,-5.78,-6.594
303,2020-01-30_15-08-54,0.0,6.8,-1.725,-7.679,-9.404,-1.557,-0.813,10.967,-5.907,-6.72
304,2020-01-30_15-08-59,0.0,7.307,-1.675,0.0,-1.675,-1.564,-0.817,2.938,-5.965,-6.782
305,2020-01-30_15-09-01,0.0,6.778,-1.663,0.0,-1.663,-1.564,-0.829,3.388,-6.001,-6.83
306,2020-01-30_15-09-05,0.0,6.692,-1.658,0.0,-1.658,-1.563,-0.832,3.739,-6.144,-6.976
307,2020-01-30_15-09-07,0.0,6.781,-1.652,0.0,-1.652,-1.561,-0.832,3.727,-6.224,-7.056
308,2020-01-30_15-09-12,0.0,6.169,-1.651,0.0,-1.651,-1.56,-0.827,4.183,-6.201,-7.028
309,2020-01-30_15-09-16,0.0,6.122,-1.649,0.0,-1.649,-1.556,-0.824,4.064,-6.16,-6.984
310,2020-01-30_15-09-18,0.0,6.457,-1.649,0.0,-1.649,-1.558,-0.824,3.781,-6.139,-6.963
311,2020-01-30_15-09-21,0.0,6.166,-1.65,0.0,-1.65,-1.557,-0.823,4.158,-6.104,-6.927
312,2020-01-30_15-09-24,0.0,6.087,-1.65,0.0,-1.65,-1.561,-0.826,4.263,-5.909,-6.734999999999999
313,2020-01-30_15-09-29,0.0,5.71,-1.653,0.0,-1.653,-1.559,-0.827,4.265,-5.884,-6.711
314,2020-01-30_15-09-31,0.0,5.758,-1.653,0.0,-1.653,-1.558,-0.825,4.099,-5.728,-6.553
